{
  "project_info": {
    "project_number": "698883171438",
    "firebase_url": "https://heartstonelib-306f9.firebaseio.com",
    "project_id": "heartstonelib-306f9",
    "storage_bucket": "heartstonelib-306f9.appspot.com"
  },
  "client": [
    {
      "client_info": {
        "mobilesdk_app_id": "1:698883171438:android:3b15601d50fa0550",
        "android_client_info": {
          "package_name": "com.mrphillip.heartstonelib"
        }
      },
      "oauth_client": [
        {
          "client_id": "698883171438-j4mhsjmtvgng121n5ajhnhbkd2ieatf7.apps.googleusercontent.com",
          "client_type": 3
        }
      ],
      "api_key": [
        {
          "current_key": "AIzaSyADiCmdfo92R-dXwVJMv2t2gkpfhHtrzKA"
        }
      ],
      "services": {
        "analytics_service": {
          "status": 1
        },
        "appinvite_service": {
          "status": 1,
          "other_platform_oauth_client": []
        },
        "ads_service": {
          "status": 2
        }
      }
    }
  ],
  "configuration_version": "1"
}